46.88723;7.659992;14.999999999068677
46.887247109526314;7.660000117011838;14.999992424622178
46.887264219052064;7.6600082340288544;14.999985476024449
46.88728132857724;7.660016351051048;14.999979156069458
46.88729843810182;7.660024468078421;14.999973464757204
46.88731554762585;7.660032585110973;14.999968400225043
46.88733265714931;7.6600407021487005;14.999963963404298
46.88734976667219;7.6600488191916085;14.99996015522629
46.887366876194484;7.6600569362396955;14.999956974759698
46.88738398571623;7.660065053292957;14.999954421073198
46.88740109523738;7.6600731703514;14.999952496029437
46.88741820475796;7.660081287415018;14.999951199628413
46.88743531427797;7.660089404483817;14.999950530007482
46.8874524237974;7.660097521557796;14.999950489029288
46.88746953331628;7.660105638636949;14.999951074831188
46.88748664283456;7.660113755721283;14.999952289275825
46.88750375235228;7.660121872810791;14.999954130500555
46.88752086186941;7.660129989905482;14.999956601299345
46.88753797138598;7.66013810700535;14.999959698878229
46.887555080901976;7.660146224110396;14.999963424168527
46.88757219041739;7.660154341220619;14.999967778101563
46.887589299932245;7.660162458336021;14.999972758814692
46.887606409446505;7.6601705754566005;14.99997836817056
46.887623518960204;7.6601786925823605;14.999984605237842
46.887640628473335;7.660186809713299;14.999991469085217
46.88765773798588;7.660194926849414;14.99999896157533
46.88766;7.660196;15.0
46.88767660591951;7.660176211624805;14.999981148168445
46.88765949640564;7.660168094491804;14.99997316673398
46.88764238689119;7.660159977363983;14.999965813010931
46.887625277376166;7.660151860241338;14.99995908793062
46.88760816786058;7.660143743123872;14.999952989630401
46.8875910583444;7.660135626011585;14.99994751997292
46.88757394882765;7.660127508904474;14.999942677095532
46.88755683931034;7.660119391802542;14.999938462860882
46.88753972979244;7.6601112747057885;14.999934876337647
46.887522620274;7.660103157614215;14.999931916594505
46.88750551075495;7.660095040527818;14.999929586425424
46.887488401235345;7.660086923446599;14.999927883967757
46.887471291715165;7.660078806370559;14.999926808290184
46.8874541821944;7.660070689299696;14.999926361255348
46.88743707267306;7.660062572234015;14.999926541931927
46.88741996315116;7.660054455173507;14.999927350319922
46.887402853628686;7.66004633811818;14.999928786419332
46.88738574410563;7.6600382210680324;14.999930850230157
46.887368634582;7.660030104023059;14.99993354268372
46.88735152505779;7.660021986983266;14.999936862848699
46.887334415533026;7.660013869948652;14.99994080979377
46.88731730600768;7.660005752919216;14.99994538538158
46.887300196481746;7.659997635894958;14.999950589612126
46.887283086955264;7.659989518875877;14.999956419691443
46.8872659774282;7.659981401861976;14.999962878413498
46.88725652327027;7.6599769166712965;14.999966717325151
46.887283046538556;7.65996183332768;14.999935005791485
46.887300156067006;7.659969950337923;14.999928968958557
46.88731726559488;7.659978067353347;14.999923560768366
46.8873343751222;7.659986184373948;14.99991878028959
46.88735148464893;7.659994301399723;14.999914628453553
46.887368594175086;7.66000241843068;14.999911103397608
46.887385703700666;7.660010535466813;14.999908206053078
46.88740281322568;7.660018652508125;14.999905937351286
46.88741992275012;7.6600267695546185;14.999904295429587
46.88743703227398;7.660034886606285;14.999903282150626
46.88745414179727;7.660043003663132;14.99990289658308
46.88747125131998;7.660051120725158;14.99990313872695
46.88748836084211;7.660059237792361;14.999904009513557
46.887505470363706;7.6600673548647435;14.999905506148934
46.88752257988469;7.660075471942301;14.999907632358372
46.88753968940511;7.6600835890250405;14.999910385347903
46.887556798924955;7.660091706112955;14.999913767911494
46.88757390844423;7.660099823206052;14.999917776323855
46.887591017962926;7.660107940304324;14.999922414310277
46.88760812748106;7.660116057407774;14.999927678145468
46.8876252369986;7.660124174516403;14.99993357155472
46.88764234651559;7.660132291630209;14.999940091744065
46.88765945603199;7.660140408749196;14.999947240576148
46.887676565547814;7.6601485258733595;14.999955017119646
46.887693211835604;7.66015642323736;14.999963185749948
46.88770981774831;7.66013663483766;14.999946113675833
46.887692708231626;7.660128517712257;14.999937321059406
46.88767559871439;7.660120400592034;14.999929155223072
46.88765848919657;7.660112283476987;14.999921618960798
46.88764137967818;7.6601041663671205;14.999914708547294
46.88762427015919;7.660096049262428;14.999908427707851
46.88760716063967;7.660087932162918;14.9999027736485
46.88759005111955;7.660079815068584;14.999897748231888
46.88757294159887;7.660071697979429;14.999893349595368
46.8875558320776;7.660063580895451;14.999889579601586
46.88753872255577;7.6600554638166525;14.99988643731922
46.887521613033364;7.660047346743034;14.999883922748268
46.887504503510385;7.660039229674591;14.999882035888731
46.88748739398683;7.660031112611326;14.99988077674061
46.887470284462694;7.66002299555324;14.999880146235228
46.887453174938;7.660014878500333;14.999880142509937
46.88743606541272;7.660006761452604;14.999880767427385
46.88741895588686;7.6599986444100505;14.999882019124925
46.88740184636045;7.659990527372677;14.999883899465203
46.88738473683344;7.659982410340483;14.999886407516897
46.88736762730586;7.659974293313465;14.999889544211328
46.88735051777772;7.659966176291628;14.999893307685852
46.887333408249;7.659958059274966;14.999897699803114
46.88731629871971;7.6599499422634825;14.999902719631791
46.88730956980488;7.659946749969147;14.999904865399003
46.88733609306921;7.659931666595697;14.999876297079027
46.88735320259979;7.659939783604345;14.999871800653636
46.8873703121298;7.659947900618172;14.999867931008339
46.887387421659234;7.659956017637178;14.99986469000578
46.88740453118809;7.65996413466136;14.999862077645957
46.88742164071638;7.659972251690722;14.999860092066228
46.88743875024411;7.659980368725259;14.999858734197915
46.88745585977125;7.659988485764979;14.999858004041016
46.88747296929782;7.6599966028098745;14.999857902526855
46.88749007882381;7.660004719859948;14.99985842872411
46.88750718834924;7.660012836915199;14.999859581701458
46.88752429787409;7.6600209539756285;14.999861363321543
46.887541407398345;7.6600290710412375;14.999863773584366
46.887558516922056;7.660037188112023;14.999866810627282
46.88757562644518;7.66004530518799;14.999870476312935
46.88759273596774;7.660053422269132;14.999874768778682
46.88760984548972;7.660061539355453;14.999879689887166
46.88762695501113;7.660069656446954;14.999885238707066
46.88764406453196;7.660077773543629;14.99989141523838
46.88766117405221;7.660085890645488;14.999898220412433
46.887678283571894;7.6600940077525195;14.999905652366579
46.887695393091;7.660102124864731;14.999913712963462
46.887712502609546;7.660110241982123;14.999922400340438
46.887726423657575;7.660116846425707;14.999929932877421
46.88774302956345;7.6600970580015035;14.999914641492069
46.88772592004399;7.6600889408837;14.999905036762357
46.88770881052395;7.660080823771073;14.99989605974406
46.887691701003334;7.660072706663625;14.999887711368501
46.88767459148213;7.6600645895613555;14.999879990704358
46.88765748196036;7.660056472464264;14.999872896820307
46.88764037243802;7.66004835537235;14.999866431578994
46.88762326291511;7.660040238285616;14.999860593117774
46.887606153391644;7.660032121204056;14.999855383299291
46.88758904386759;7.6600240041276795;14.999850801192224
46.887571934342944;7.660015887056478;14.999846847727895
46.887554824817755;7.6600077699904565;14.999843521043658
46.887537715291955;7.659999652929612;14.99984082300216
46.88752060576561;7.659991535873944;14.999838752672076
46.88750349623868;7.659983418823457;14.999837310053408
46.887486386711196;7.659975301778147;14.999836495146155
46.88746927718311;7.659967184738016;14.99983630888164
46.887452167654466;7.659959067703061;14.999836749397218
46.887435058125234;7.659950950673287;14.999837818555534
46.88741794859545;7.65994283364869;14.999839514493942
46.88740083906508;7.65993471662927;14.999841839075089
46.88738372953413;7.65992659961503;14.99984479136765
46.887366620002624;7.659918482605967;14.999848371371627
46.887362616331544;7.659916583207329;14.999849299900234
46.88738913959191;7.6599014998040476;14.999823874793947
46.887406249124645;7.6599096168111;14.99982091691345
46.88742335865679;7.659917733823334;14.99981858767569
46.887440468188345;7.65992585084074;14.999816886149347
46.887457577719346;7.65993396786333;14.999815812334418
46.887474687249764;7.659942084891097;14.999815366230905
46.887491796779614;7.6599502019240395;14.999815547838807
46.88750890630889;7.659958318962163;14.999816358089447
46.887526015837594;7.659966436005463;14.999817796051502
46.887543125365724;7.659974553053942;14.99981986079365
46.88756023489328;7.659982670107598;14.999822554178536
46.88757734442025;7.659990787166432;14.99982587620616
46.88759445394666;7.659998904230449;14.999829824082553
46.8876115634725;7.660007021299639;14.999834401533008
46.88762867299775;7.660015138374008;14.999839606694877
46.88764578252243;7.660023255453557;14.99984543863684
46.88766289204654;7.660031372538284;14.99985189922154
46.88768000157008;7.660039489628187;14.999858987517655
46.88769711109305;7.6600476067232695;14.999866702593863
46.887714220615436;7.660055723823531;14.999875047244132
46.887731330137264;7.660063840928971;14.999884018674493
46.88774843965851;7.660071958039589;14.99989361781627
46.88775963546591;7.66007726956505;14.999900239519775
46.88777624136496;7.66005748111634;14.999886728823185
46.8877591318427;7.6600493640061345;14.999876311980188
46.88774202231986;7.6600412469011046;14.999866523779929
46.88772491279645;7.6600331298012545;14.999857363291085
46.887707803272455;7.6600250127065825;14.999848830513656
46.8876906937479;7.660016895617088;14.999840926378965
46.88767358422276;7.660008778532774;14.999833649024367
46.88765647469705;7.660000661453635;14.999827000312507
46.88763936517078;7.6599925443796755;14.99982097838074
46.88762225564391;7.659984427310896;14.999815586023033
46.8876051461165;7.659976310247291;14.999810819514096
46.88758803658848;7.6599681931888695;14.999806681647897
46.88757092705991;7.659960076135621;14.999803171493113
46.88755381753076;7.659951959087552;14.999800289981067
46.88753670800104;7.659943842044663;14.999798036180437
46.88751959847073;7.659935725006951;14.999796409159899
46.88750248893985;7.659927607974418;14.999795410782099
46.88748537940841;7.659919490947062;14.999795040115714
46.88746826987639;7.659911373924885;14.999795297160745
46.8874511603438;7.659903256907886;14.99979618191719
46.88743405081063;7.659895139896064;14.999797694385052
46.887416941276896;7.659887022889422;14.99979983549565
46.887415662850294;7.659886416385845;14.999800021760166
46.88744218610672;7.659871332952731;14.999777738936245
46.88745929564156;7.659879449958188;14.999776320531964
46.88747640517584;7.659887566968826;14.999775530770421
46.88749351470955;7.65989568398464;14.99977536778897
46.887510624242665;7.659903801005633;14.99977583438158
46.88752773377523;7.659911918031804;14.999776927754283
46.887544843307204;7.659920035063153;14.9997786488384
46.88756195283861;7.659928152099681;14.999780997633934
46.88757906236944;7.659936269141386;14.999783975072205
46.8875961718997;7.659944386188271;14.999787580221891
46.887613281429395;7.659952503240333;14.99979181215167
46.887630390958506;7.659960620297571;14.999796672724187
46.88764750048705;7.659968737359993;14.99980216100812
46.88766461001501;7.659976854427585;14.99980827793479
46.88768171954241;7.659984971500362;14.999815021641552
46.88769882906922;7.659993088578313;14.99982239305973
46.887715938595456;7.660001205661445;14.999830393120646
46.88773304812113;7.660009322749756;14.999839020892978
46.887750157646224;7.6600174398432435;14.999848275445402
46.887767267170744;7.660025556941909;14.999858159571886
46.8877843766947;7.660033674045754;14.999868670478463
46.887792847260606;7.660037692655378;14.999874107539654
46.88780945315285;7.660017904182166;14.999862375669181
46.88779234362779;7.6600097870795585;14.999851148575544
46.88777523410215;7.660001669982125;14.999840548262
46.88775812457593;7.6599935528898735;14.999830575659871
46.887741015049144;7.6599854358028;14.99982123170048
46.88772390552178;7.659977318720904;14.999812515452504
46.88770679599385;7.659969201644187;14.999804426915944
46.88768968646534;7.659961084572646;14.999796966090798
46.88767257693626;7.659952967506285;14.999790133908391
46.88765546740662;7.659944850445102;14.999783928506076
46.88763835787639;7.659936733389097;14.999778350815177
46.88762124834559;7.659928616338271;14.999773401767015
46.88760413881421;7.659920499292621;14.99976908043027
46.88758702928227;7.659912382252153;14.999765386804938
46.887569919749744;7.659904265216862;14.999762321822345
46.887552810216654;7.659896148186746;14.999759882688522
46.887535700682974;7.659888031161811;14.99975807312876
46.88751859114873;7.6598799141420555;14.999756891280413
46.887501481613924;7.659871797127476;14.999756336212158
46.88748437207853;7.659863680118075;14.999756409786642
46.887468709361144;7.6598562495046965;14.999757027253509
46.887495232613595;7.659841166041746;14.999737887643278
46.88751234215057;7.659849283045611;14.999738009646535
46.88752945168698;7.659857400054654;14.999738758429885
46.88754656122281;7.65986551706887;14.999740135855973
46.88756367075806;7.659873634088269;14.999742140993476
46.88758078029276;7.659881751112843;14.999744773842394
46.88759788982687;7.659889868142599;14.99974803533405
46.8876149993604;7.6598979851775315;14.9997519236058
46.88763210889338;7.659906102217643;14.999756439588964
46.887649218425764;7.659914219262931;14.999761584214866
46.88766632795758;7.659922336313397;14.999767356552184
46.88768343748881;7.659930453369043;14.999773756600916
46.8877005470195;7.659938570429866;14.999780784361064
46.8877176565496;7.659946687495868;14.999788439832628
46.887734766079134;7.659954804567048;14.999796723015606
46.887751875608075;7.6599629216434035;14.999805634841323
46.887768985136454;7.659971038724941;14.999815174378455
46.88778609466425;7.659979155811658;14.999825341627002
46.887803204191464;7.659987272903549;14.999836136586964
46.88782031371813;7.65999539000062;14.999847559258342
46.88782605904166;7.659998115696699;14.999851535074413
46.88784266492707;7.6599783271989805;14.999841584824026
46.8878255553992;7.65997021010397;14.999829545617104
46.887808445870775;7.659962093014137;14.999818134121597
46.88779133634177;7.659953975929483;14.999807350337505
46.887774226812176;7.659945858850007;14.999797195196152
46.887757117282035;7.659937741775709;14.999787665903568
46.8877400077513;7.6599296247065904;14.999778767116368
46.887722898220005;7.659921507642648;14.999770494177938
46.88770578868813;7.659913390583885;14.999762849882245
46.88768867915567;7.6599052735303;14.999755833297968
46.887671569622654;7.659897156481892;14.999749444425106
46.88765446008905;7.659889039438665;14.99974368326366
46.887637350554876;7.659880922400615;14.99973855074495
46.887620241020144;7.659872805367742;14.999734045006335
46.887603131484816;7.659864688340048;14.999730166979134
46.88758602194893;7.659856571317532;14.999726917594671
46.887568912412455;7.659848454300194;14.999724296852946
46.88755180287542;7.659840337288036;14.999722301959991
46.8875346933378;7.6598322202810545;14.999720936641097
46.88752175586405;7.659826082563881;14.999720320105553
46.88754827911254;7.659810999071096;14.999704322777689
46.887565388651645;7.659819116073366;14.999705984257162
46.88758249819019;7.659827233080813;14.999708272516727
46.887599607728156;7.659835350093436;14.999711189419031
46.88761671726555;7.659843467111239;14.99971473403275
46.887633826802364;7.659851584134219;14.999718907289207
46.88765093633862;7.659859701162379;14.999723707325757
46.887668045874285;7.659867818195717;14.999729135073721
46.88768515540938;7.65987593523423;14.999735191464424
46.88770226494391;7.659884052277927;14.99974187463522
46.887719374477854;7.659892169326796;14.999749187380075
46.88773648401123;7.659900286380847;14.999757125973701
46.887753593544026;7.659908403440074;14.999765693210065
46.88777070307627;7.65991652050448;14.999774888157845
46.88778781260791;7.6599246375740675;14.999784711748362
46.887804922139;7.659932754648829;14.999795162118971
46.88782203166951;7.659940871728772;14.999806240200996
46.88783914119943;7.65994898881389;14.999817947857082
46.8878562507288;7.659957105904188;14.999830281361938
46.887859270809074;7.6599585386890086;14.99983252491802
46.887875876687666;7.659938750166785;14.999824354425073
46.88785876715701;7.659930633079374;14.999811503104866
46.88784165762578;7.659922515997139;14.999799278564751
46.887824548093974;7.659914398920081;14.999787683598697
46.887807438561595;7.659906281848205;14.999776716344059
46.88779032902865;7.659898164781505;14.999766376800835
46.88777321949512;7.6598900477199825;14.999756664969027
46.88775610996101;7.659881930663639;14.999747581779957
46.88773900042634;7.659873813612476;14.99973912537098
46.8877218908911;7.659865696566488;14.999731296673417
46.88770478135526;7.65985757952568;14.999724097549915
46.88768767181888;7.659849462490048;14.999717524275184
46.88767056228191;7.659841345459597;14.99971157964319
46.88765345274438;7.659833228434324;14.999706262722611
46.88763634320625;7.659825111414228;14.999701573513448
46.887619233667564;7.65981699439931;14.999697512947023
46.88760212412829;7.6598088773895725;14.99969407916069
46.88758501458847;7.659800760385008;14.999691274017096
46.887574802359026;7.659795915563396;14.999689899384975
46.887601325603555;7.659780832040781;14.9996770452708
46.887618435144795;7.659788949041454;14.99968024622649
46.88763554468548;7.659797066047304;14.999684073962271
46.887652654225576;7.659805183058334;14.99968853034079
46.887669763765096;7.659813300074543;14.999693614430726
46.88768687330406;7.659821417095926;14.999699325300753
46.88770398284244;7.659829534122491;14.999705664813519
46.88772109238024;7.659837651154232;14.999712632969022
46.887738201917465;7.659845768191153;14.999720227904618
46.887755311454114;7.659853885233252;14.999728451482952
46.88777242099019;7.65986200228053;14.9997373027727
46.88778953052571;7.659870119332983;14.999746780842543
46.887806640060646;7.6598782363906155;14.999756887555122
46.887823749595;7.659886353453429;14.99976762291044
46.887840859128794;7.659894470521419;14.999778984114528
46.887857968662004;7.659902587594587;14.999790974892676
46.887875078194654;7.6599107046729324;14.999803592450917
46.88789218772672;7.659918821756457;14.999816838651896
46.88789248256285;7.659918961632309;14.999817073345184
46.88790908843462;7.65989917308558;14.999810683541
46.88789197890117;7.659891056005766;14.99979702103883
46.88787486936714;7.659882938931129;14.999783986248076
46.88785775983254;7.6598748218616715;14.999771579168737
46.88784065029736;7.659866704797392;14.999759799800813
46.887823540761616;7.659858587738289;14.999748649075627
46.88780643122529;7.6598504706843675;14.999738125130534
46.8877893216884;7.6598423536356215;14.999728229828179
46.88777221215093;7.659834236592055;14.999718962237239
46.887755102612886;7.659826119553666;14.999710322357714
46.88773799307425;7.659818002520454;14.999702311120927
46.88772088353507;7.6598098854924235;14.999694926664233
46.88770377399529;7.659801768469568;14.999688170850277
46.887686664454954;7.659793651451895;14.999682041816413
46.88766955491404;7.659785534439397;14.999676541425288
46.88765244537255;7.659777417432076;14.999671667814255
46.88763533583048;7.659769300429935;14.999667423777282
46.88762784884609;7.659765748503246;14.999665763229132
46.88765437208665;7.6597506649507965;14.999656052328646
46.887671481630036;7.659758781949875;14.999660791829228
46.88768859117284;7.659766898954129;14.999666159972548
46.88770570071507;7.6597750159635645;14.999672154895961
46.88772281025671;7.659783132978176;14.999678779393435
46.8877399197978;7.659791249997967;14.999686030671
46.887757029338324;7.659799367022938;14.99969390872866
46.88777413887826;7.659807484053083;14.999702416360378
46.887791248417614;7.659815601088409;14.99971155077219
46.8878083579564;7.659823718128912;14.99972131382674
46.88782546749463;7.659831835174594;14.999731704592705
46.887842577032266;7.659839952225453;14.999742723070085
46.887859686569335;7.659848069281491;14.99975436925888
46.88787679610583;7.659856186342708;14.999766643159091
46.88789390564174;7.659864303409102;14.999779544770718
46.88791101517709;7.659872420480674;14.999793075025082
46.887925694302986;7.6598793845266;14.999805183149874
46.887942300167936;7.659859595955366;14.99980057310313
46.887925190631684;7.65985147888315;14.999786098487675
46.887908081094864;7.659843361816112;14.999772252514958
46.88789097155746;7.659835244754252;14.999759034253657
46.88787386201949;7.659827127697569;14.999746442772448
46.88785675248094;7.659819010646066;14.9997344808653
46.88783964294181;7.659810893599743;14.999723145738244
46.88782253340213;7.659802776558595;14.999712438322604
46.88780542386185;7.659794659522626;14.999702359549701
46.88778831432102;7.659786542491836;14.999692907556891
46.8877712047796;7.6597784254662225;14.99968408420682
46.887754095237604;7.659770308445789;14.999675888568163
46.88773698569504;7.659762191430532;14.999668320640922
46.88771987615191;7.659754074420457;14.999661380425096
46.88770276660819;7.659745957415555;14.999655068852007
46.88768565706392;7.6597378404158345;14.999649384059012
46.88768089532523;7.659735581383428;14.99964791443199
46.887707418561824;7.659720497801146;14.99964134581387
46.88772452810734;7.65972861479863;14.999647625721991
46.887741637652276;7.659736731801289;14.999654533341527
46.88775874719665;7.659744848809128;14.999662067741156
46.887775856740426;7.659752965822144;14.999670230783522
46.88779296628364;7.65976108284034;14.999679021537304
46.88781007582628;7.659769199863716;14.999688440002501
46.887827185368366;7.6597773168922645;14.999698486179113
46.88784429490984;7.659785433925997;14.999709160998464
46.887861404450774;7.659793550964903;14.999720462597907
46.887878513991126;7.65980166800899;14.999732391908765
46.8878956235309;7.659809785058257;14.999744949862361
46.887912733070095;7.659817902112699;14.999758135527372
46.88792984260871;7.6598260191723195;14.999771948903799
46.88794695214677;7.659834136237119;14.999786389991641
46.88795890602949;7.659839807371879;14.999796852469444
46.88797551188762;7.6598200187761405;14.999794023111463
46.887958402348566;7.659811901711522;14.999778738245368
46.88794129280895;7.659803784652082;14.999764080159366
46.88792418326875;7.659795667597823;14.99975004978478
46.887907073727995;7.659787550548738;14.999736646190286
46.88788996418664;7.659779433504832;14.999723873101175
46.88787285464472;7.659771316466108;14.999711725860834
46.88785574510222;7.659763199432558;14.999700208194554
46.88783863555918;7.659755082404187;14.999689316377044
46.88782152601552;7.659746965380993;14.999679054133594
46.88780441647131;7.659738848362979;14.999669418670237
46.887787306926526;7.659730731350145;14.999660410918295
46.887770197381165;7.659722614342486;14.999652030877769
46.88775308783522;7.659714497340009;14.999644280411303
46.88773597828872;7.659706380342706;14.999637155793607
46.88773394179645;7.659705414203945;14.99963635019958
46.88776046502908;7.659690330591827;14.999632925726473
46.88777757457672;7.659698447587715;14.99964074511081
46.88779468412378;7.65970656458878;14.999649191275239
46.88781179367029;7.659714681595023;14.999658265151083
46.88782890321621;7.659722798606444;14.999667967669666
46.887846012761564;7.659730915623047;14.999678297899663
46.887863122306335;7.659739032644825;14.999689255841076
46.88788023185053;7.65974714967178;14.999700841493905
46.88789734139416;7.6597552667039155;14.999713054858148
46.88791445093721;7.659763383741228;14.99972589686513
46.887931560479686;7.6597715007837195;14.999739366583526
46.887948670021586;7.659779617831388;14.999753463082016
46.88796577956292;7.659787734884237;14.999768188223243
46.88798288910368;7.659795851942263;14.999783541075885
46.88799211774236;7.65980023016815;14.99979208316654
46.888008723593664;7.659780441547905;14.999791033565998
46.887991614051806;7.659772324490886;14.999774936586618
46.88797450450938;7.659764207439044;14.999759467318654
46.887957394966406;7.659756090392381;14.999744624830782
46.88794028542283;7.659747973350896;14.999730411916971
46.88792317587869;7.659739856314587;14.999716825783253
46.887906066333976;7.659731739283459;14.99970386736095
46.88788895678868;7.659723622257508;14.999691537581384
46.887871847242806;7.659715505236737;14.999679835513234
46.88785473769639;7.659707388221142;14.999668760225177
46.88783762814937;7.6596992712107275;14.999658313579857
46.88782051860179;7.659691154205488;14.999648494645953
46.88780340905362;7.659683037205429;14.999639304354787
46.88778698825973;7.659675246964792;14.999631073325872
46.8878135114884;7.659660163322839;14.999630791135132
46.88783062103818;7.659668280317131;14.999640149064362
46.887847730587374;7.659676397316603;14.99965013563633
46.88786484013601;7.659684514321252;14.99966074898839
46.88788194968405;7.659692631331078;14.999671990983188
46.887899059231536;7.659700748346084;14.999683860689402
46.887916168778446;7.659708865366265;14.999696359038353
46.88793327832477;7.659716982391628;14.999709484167397
46.887950387870546;7.659725099422168;14.999723237007856
46.88796749741573;7.659733216457885;14.999737617559731
46.88798460696033;7.659741333498781;14.999752626754344
46.88800171650437;7.659749450544854;14.999768263660371
46.88801882604783;7.659757567596107;14.999784528277814
46.88802532944156;7.659760652915408;14.99979087524116
46.888041935286054;7.659740864270661;14.999791605398059
46.888024825741425;7.6597327472212395;14.999774696305394
46.88800771619621;7.659724630176997;14.999758414924145
46.88799060665041;7.659716513137932;14.999742762185633
46.88797349710405;7.659708396104043;14.999727736227214
46.887956387557104;7.6597002790753335;14.999713338911533
46.88793927800959;7.6596921620518055;14.999699569307268
46.887922168461515;7.659684045033451;14.999686427414417
46.88790505891284;7.65967592802028;14.999673913232982
46.88788794936361;7.659667811012282;14.999662027694285
46.88787083981379;7.6596596940094654;14.99965076893568
46.88785373026341;7.659651577011827;14.999640138819814
46.88784003471509;7.65964507966597;14.99963208194822
46.8878665579398;7.6596299959941865;14.99963494297117
46.88788366749171;7.659638112986884;14.999645841307938
46.887900777043036;7.659646229984758;14.999657366424799
46.88791788659381;7.6596543469878124;14.999669519253075
46.88793499614399;7.659662463996043;14.99968230072409
46.88795210569361;7.659670581009453;14.999695708975196
46.88796921524265;7.659678698028041;14.99970974586904
46.88798632479111;7.659686815051805;14.999724411405623
46.888003434339;7.65969493208075;14.99973970465362
46.88802054388631;7.659703049114872;14.999755623750389
46.88803765343305;7.659711166154172;14.999772172421217
46.888054762979216;7.659719283198651;14.99978934880346
46.88805854112715;7.659721075613659;14.999793225899339
46.88807514696482;7.659701286944405;14.999795736745
46.88805803741739;7.65969316990258;14.999778016470373
46.88804092786936;7.659685052865934;14.99976092390716
46.888023818320775;7.65967693583447;14.999744459055364
46.888006708771606;7.65966881880818;14.999728621914983
46.88798959922188;7.65966070178707;14.999713412486017
46.88797248967156;7.659652584771138;14.999698831699789
46.88795538012069;7.6596444677603825;14.999684878624976
46.88793827056923;7.659636350754809;14.999671552330256
46.88792116101719;7.659628233754409;14.999658855609596
46.887904051464574;7.659620116759193;14.999646785669029
46.88789308116253;7.659614912307483;14.999639376066625
46.887919604383285;7.659599828605865;14.999645380303264
46.887936713937314;7.659607945596965;14.999657818116248
46.88795382349079;7.659616062593247;14.999670882709324
46.88797093304366;7.659624179594702;14.999684575945139
46.88798804259599;7.659632296601339;14.999698895961046
46.888005152147734;7.659640413613152;14.999713844619691
46.8880222616989;7.659648530630146;14.999729420989752
46.8880393712495;7.659656647652317;14.999745625071228
46.88805648079952;7.659664764679666;14.999762456864119
46.88807359034897;7.6596728817121935;14.999779917299747
46.888090699897845;7.659680998749899;14.999798004515469
46.88809175279908;7.6596814982628985;14.999799138866365
46.88810835862995;7.659661709569139;14.999803429469466
46.88809124907971;7.659653592534915;14.999784897081554
46.888074139528904;7.659645475505868;14.999766992405057
46.88805702997751;7.659637358481999;14.999749716371298
46.88803992042554;7.659629241463309;14.999733068048954
46.88802281087301;7.659621124449798;14.999717047438025
46.888005701319905;7.659613007441464;14.999701654538512
46.887988591766224;7.659604890438306;14.999686889350414
46.88797148221197;7.659596773440329;14.999672751873732
46.887954372657134;7.659588656447529;14.999659242108464
46.887946127602035;7.659584744889328;14.99965295754373
46.887972650818824;7.6595696611578745;14.999662104062736
46.887989760375;7.659577778147381;14.999676080420613
46.8880068699306;7.659585895142064;14.999690686352551
46.888023979485624;7.659594012141926;14.999705918133259
46.888041089040065;7.6596021291469665;14.999721778556705
46.88805819859394;7.659610246157188;14.999738265760243
46.88807530814724;7.659618363172584;14.99975538160652
46.88809241769998;7.659626480193159;14.99977312516421
46.88810952725213;7.659634597218912;14.999791496433318
46.88812496445738;7.659641920863128;14.999808611348271
46.88814157028143;7.659622132144863;14.999814681708813
46.888124460728385;7.659614015118236;14.999795338138938
46.88810735117478;7.659605898096786;14.999776622280478
46.88809024162058;7.659597781080517;14.999758535064757
46.88807313206583;7.659589664069425;14.999741074629128
46.8880560225105;7.65958154706351;14.999724242836237
46.88803891295459;7.659573430062776;14.999708037823439
46.888021803398125;7.659565313067217;14.999692460522056
46.888004693841076;7.65955719607684;14.99967751186341
46.88799917403364;7.659554577411503;14.99967282358557
46.888025697246455;7.659539493650214;14.999685114249587
46.88804280680476;7.659547610638125;14.99970063008368
46.88805991636249;7.659555727631216;14.999716773629189
46.88807702591964;7.659563844629481;14.999733545817435
46.888094135476216;7.659571961632928;14.999750945717096
46.88811124503223;7.65958007864155;14.99976897239685
46.88812835458767;7.6595881956553535;14.99978762678802
46.88814546414252;7.659596312674335;14.99980691075325
46.88815817610206;7.659602343414347;14.999821643345058
46.88817478191927;7.659582554671578;14.999829495325685
46.88815767236343;7.659574437652548;14.999809340573847
46.88814056280703;7.659566320638698;14.999789812602103
46.88812345325004;7.659558203630025;14.999770913273096
46.88810634369249;7.659550086626531;14.999752641655505
46.88808923413436;7.6595419696282185;14.999734997749329
46.88807212457566;7.65953385263508;14.999717981554568
46.88805501501638;7.659525735647121;14.999701593071222
46.888052220457304;7.659524409874012;14.999698976054788
46.88807874366614;7.659509326082887;14.999714409932494
46.88809585322659;7.659517443069205;14.999731465242803
46.888112962786444;7.659525560060699;14.999749148264527
46.888130072345746;7.659533677057369;14.999767458997667
46.88814718190444;7.659541794059219;14.999786398373544
46.88816429146257;7.659549911066247;14.999805965460837
46.888181401020155;7.659558028078454;14.999826159328222
46.888191387733066;7.659562765916553;14.99983823671937
46.88820799354347;7.65954297714928;14.999847868457437
46.88819088398485;7.65953486013785;14.999826901592314
46.88817377442563;7.659526743131598;14.99980656336993
46.88815666486586;7.659518626130525;14.999786850996315
46.88813955530551;7.659510509134629;14.999767768196762
46.88812244574458;7.659502392143914;14.999749313108623
46.888105336183074;7.659494275158371;14.9997314857319
46.88810526687304;7.65949424227685;14.999731414020061
46.888131790077935;7.659479158455893;14.999749991111457
46.888148899640505;7.659487275440614;14.999768585897982
46.888166009202486;7.659495392430512;14.999787809327245
46.88818311876391;7.659503509425588;14.9998076595366
46.888200228324756;7.659511626425843;14.99982813745737
46.88821733788503;7.659519743431275;14.99984924402088
46.88822459935045;7.659523188369753;14.999858390539885
46.888241205154046;7.659503399577971;14.999869802966714
46.888224095592605;7.659495282574138;14.999848024919629
46.8882069860306;7.659487165575486;14.99982687458396
46.88818987646804;7.659479048582011;14.999806351028383
46.88817276690489;7.659470931593713;14.999786457046866
46.88815831328085;7.659464074620021;14.999770138412714
46.88818483648178;7.65944899076923;14.9997918587178
46.88820194604648;7.659457107752354;14.99981199298054
46.888219055610605;7.659465224740656;14.999832754954696
46.88823616517415;7.659473341734138;14.99985414557159
46.88825327473714;7.659481458732798;14.999876162968576
46.888257810954194;7.659483610773938;14.999882105737925
46.88827441675095;7.659463821957654;14.999895296990871
46.88825730718673;7.65945570496142;14.999872707761824
46.88824019762192;7.659447587970366;14.99985074531287
46.888223088056556;7.6594394709844895;14.999829411506653
46.88821135968074;7.659433906903523;14.999815150164068
46.888237882877704;7.6594188230228974;14.999840011820197
46.888254992444544;7.659426940004427;14.999861685559154
46.88827210201079;7.659435056991133;14.999883987009525
46.88828921157648;7.6594431739830195;14.999906916171312
46.888291022544294;7.659444033129114;14.999909380450845
46.88830762833424;7.659424244288323;14.999924353323877
46.88829051876721;7.6594161272996875;14.999900951981544
46.88827340919961;7.659408010316233;14.999878178350627
46.8882644060727;7.659403739127356;14.999866445548832
46.8882909292657;7.659388655216895;14.999894452281296
46.88830803883467;7.65939677219683;14.999917664565146
46.888324234120766;7.65940445543528;14.999940214678645
46.88834083990388;7.659384666569983;14.99995696824044
46.88832373033406;7.659376549588948;14.999932754784822
46.88831745245674;7.659373571291519;14.999924028292298
46.88834397564578;7.659358487351224;14.999955177307129
46.88835744568359;7.659364877692435;14.999974611215293
46.88837405145988;7.659345088802633;14.99999314546585
46.88837049883285;7.659343403396013;14.99998789653182
46.88839702201793;7.659328319425884;15.00002218876034
